error: custom attribute panicked
  --> tests/ui/08-metaNamed-arg.rs:28:1
   |
28 | #[substance_test(Ignored = "Ignore")]
   | ^^^^^^^^^^^^^^^^^^^^^^^^^^^^^^^^^^^^^
   |
   = help: message: internal error: entered unreachable code: Unsupported attribute of type Meta for `#[substance_test]`
